Exploratory analysis and density estimation
…
There are two basic kinds of questions that are always useful:

What type of variation occurs within variables?

What type of covariation occurs between variables?

Variation in one variable

Variation in data is the tendency of values to change from measurement to measurement.

For example, the following observations from your mini project data are around 8 \(\mu g/m^3\), but each one is different.

print(pmdata, n=10)

# A tibble: 4,280 × 4
   PM25_mean City     State  Year
       <dbl> <chr>    <chr> <dbl>
 1       8.6 Aberdeen SD     2000
 2       8.6 Aberdeen SD     2001
 3       7.9 Aberdeen SD     2002
 4       8.4 Aberdeen SD     2003
 5       8.1 Aberdeen SD     2004
 6       9   Aberdeen SD     2005
 7       8.2 Aberdeen SD     2006
 8       8   Aberdeen SD     2007
 9       7.7 Aberdeen SD     2008
10       8.1 Aberdeen SD     2009
# ℹ 4,270 more rows
…
Question refinement

mean(nyears_over12$count > 0)

[1] 0.7242991

Many cities exceeded the standard at some point in time: over 70% of the cities in the dataset. So it was more widespread, but these were the worst:

nyears_over12 |> arrange(desc(count))

# A tibble: 214 × 3
# Groups:   City [211]
   City                State    count
   <chr>               <chr>    <int>
 1 Hanford-Corcoran    CA          20
 2 Visalia-Porterville CA          20
 3 Fresno              CA          19
 4 Bakersfield         CA          18
 5 Modesto             CA          15
 6 Stockton-Lodi       CA          15
 7 Merced              CA          14
 8 Canton-Massillon    OH          12
 9 Cincinnati          OH-KY-IN    12
10 Evansville          IN-KY       12
# ℹ 204 more rows
…
cosine kernel \(K(z) \propto \cos\left(\frac{\pi z}{2}\right)\)

circular density \(K(z) \propto \exp\left\{k\cos(z)\right\}\)

any symmetric continuous probability density function

Sustainability data

We’ll work with sustainability index data for US cities to explore density estimation further.

sust <- read_csv('data/sustainability.csv')
sust 

# A tibble: 933 × 6
   GEOID_MSA      Name        Econ_Domain Social_Domain Env_Domain Sustain_Index
   <chr>          <chr>             <dbl>         <dbl>      <dbl>         <dbl>
 1 310M300US10100 Aberdeen, …       0.565         0.591      0.444          1.60
 2 310M300US10140 Aberdeen, …       0.428         0.521      0.429          1.38
 3 310M300US10180 Abilene, T…       0.481         0.497      0.454          1.43
 4 310M300US10220 Ada, OK Mi…       0.467         0.526      0.426          1.42
 5 310M300US10300 Adrian, MI…       0.498         0.602      0.282          1.38
 6 310M300US10420 Akron, OH …       0.491         0.579      0.326          1.40
 7 310M300US10460 Alamogordo…       0.399         0.535      0.416          1.35
 8 310M300US10500 Albany, GA…       0.324         0.468      0.470          1.26
 9 310M300US10540 Albany, OR…       0.461         0.589      0.401          1.45
10 310M300US10580 Albany-Sch…       0.566         0.568      0.412          1.55
# ℹ 923 more rows
…
