Density estimation, mixture models, and smoothing
…
Example: Wavy Turban’s at the beach

wt <- read_csv('data/wavy_turban_data.csv')

wt

# A tibble: 6,087 × 40
        id uuid        observed_on_string observed_on time_observed_at time_zone
     <dbl> <chr>       <chr>              <date>      <chr>            <chr>    
 1   40528 ad7af75d-2… 2011-11-25         2011-11-25  <NA>             Eastern …
 2   55204 b0eb541a-f… 2011-01-27         2011-01-27  <NA>             Pacific …
 3  118803 46e7057f-e… 2012-09-02         2012-09-02  <NA>             Pacific …
 4  467617 4ebc72d5-4… 2009-04-19 11:40:… 2009-04-19  2009-04-19 18:4… Pacific …
 5  509052 6d05b0f2-1… 2014-01-05 12:06:… 2014-01-05  2014-01-05 20:0… Pacific …
 6  917505 36f03b50-6… 2014-10-07 18:41:… 2014-10-07  2014-10-08 01:4… Pacific …
 7 1084601 2e063e32-5… 2014-11-20         2014-11-20  <NA>             Pacific …
 8 1095700 a7aba615-8… Tue Nov 25 2014 1… 2014-11-25  2014-11-26 00:5… Pacific …
 9 1102962 8cc9e37c-a… 2014-11-25 5:10 PM 2014-11-25  2014-11-26 01:1… Pacific …
10 1116893 d6c97b28-d… Fri Dec 05 2014 1… 2014-12-05  2014-12-05 21:5… Pacific …
# ℹ 6,077 more rows
# ℹ 34 more variables: user_id <dbl>, user_login <chr>, user_name <chr>,
#   created_at <chr>, updated_at <chr>, quality_grade <chr>, license <chr>,
#   url <chr>, image_url <chr>, sound_url <lgl>, tag_list <chr>,
#   description <chr>, num_identification_agreements <dbl>,
#   num_identification_disagreements <dbl>, captive_cultivated <lgl>,
#   oauth_application_id <dbl>, place_guess <chr>, latitude <dbl>, …
…
Counts by month and year

count_data <- wt |> mutate(date = ymd(observed_on), 
             month = month(date), 
             year = year(date)) |> 
  group_by(month, year) |> 
  summarize(count = n()) |> 
  mutate(date = ymd(paste(year, month, "1", sep="-"))) |> 
  arrange(date) |> filter(year > 2015)
print(count_data, n=10)

# A tibble: 109 × 4
# Groups:   month [12]
   month  year count date      
   <dbl> <dbl> <int> <date>    
 1     1  2016     7 2016-01-01
 2     2  2016     6 2016-02-01
 3     3  2016     4 2016-03-01
 4     4  2016     5 2016-04-01
 5     5  2016    11 2016-05-01
 6     6  2016    17 2016-06-01
 7     7  2016     3 2016-07-01
 8     8  2016     3 2016-08-01
 9     9  2016     8 2016-09-01
10    10  2016     3 2016-10-01
# ℹ 99 more rows
…
