Data Science Concepts and Analysis
…
Tabular data

Many possible layouts for tabular data

‘Real’ datasets have few organizational constraints

Most data are stored in tables, but there are always multiple possible tabular layouts for the same underlying data.

Reading data

mammal_data <- read_csv("data/allison1976.csv")
mammal_data

# A tibble: 62 × 11
   species          body_wt brain_wt non_dreaming dreaming total_sleep life_span
   <chr>              <dbl>    <dbl>        <dbl>    <dbl>       <dbl>     <dbl>
 1 Africanelephant  6.65e+3   5712           NA       NA           3.3      38.6
 2 Africangiantpou… 1   e+0      6.6          6.3      2           8.3       4.5
 3 ArcticFox        3.38e+0     44.5         NA       NA          12.5      14  
 4 Arcticgroundsqu… 9.2 e-1      5.7         NA       NA          16.5      NA  
 5 Asianelephant    2.55e+3   4603            2.1      1.8         3.9      69  
 6 Baboon           1.06e+1    180.           9.1      0.7         9.8      27  
 7 Bigbrownbat      2.3 e-2      0.3         15.8      3.9        19.7      19  
 8 Braziliantapir   1.6 e+2    169            5.2      1           6.2      30.4
 9 Cat              3.3 e+0     25.6         10.9      3.6        14.5      28  
10 Chimpanzee       5.22e+1    440            8.3      1.4         9.7      50  
# ℹ 52 more rows
# ℹ 4 more variables: gestation <dbl>, predation <dbl>, exposure <dbl>,
#   danger <dbl>
…
Many possible layouts for tabular data

‘Real’ datasets have few organizational constraints

Most data are stored in tables, but there are always multiple possible tabular layouts for the same underlying data.

Mammal data: long layouts

Below is the Allison 1976 mammal brain-body weight dataset from week 1 lecture shown in two ‘long’ layouts:

# import brain and body weights
mammal1 <- read_csv('data/allison1976.csv') |> select(1:3)
mammal1

# A tibble: 62 × 3
   species                 body_wt brain_wt
   <chr>                     <dbl>    <dbl>
 1 Africanelephant        6654       5712  
 2 Africangiantpouchedrat    1          6.6
 3 ArcticFox                 3.38      44.5
 4 Arcticgroundsquirrel      0.92       5.7
 5 Asianelephant          2547       4603  
 6 Baboon                   10.6      180. 
 7 Bigbrownbat               0.023      0.3
 8 Braziliantapir          160        169  
 9 Cat                       3.3       25.6
10 Chimpanzee               52.2      440  
# ℹ 52 more rows
…
SB weather data: long layouts

A third example: daily minimum and maximum temperatures recorded at Santa Barbara Municipal Airport from January 2021 through March 2021.

weather1 <- read_csv('data/sb_weather.csv')
# convert to date format specifying month/day/year format
weather1

# A tibble: 88 × 5
   STATION     NAME                                   DATE       TMAX  TMIN
   <chr>       <chr>                                  <chr>     <dbl> <dbl>
 1 USW00023190 SANTA BARBARA MUNICIPAL AIRPORT, CA US 1/1/2021     65    37
 2 USW00023190 SANTA BARBARA MUNICIPAL AIRPORT, CA US 1/2/2021     62    38
 3 USW00023190 SANTA BARBARA MUNICIPAL AIRPORT, CA US 1/3/2021     60    42
 4 USW00023190 SANTA BARBARA MUNICIPAL AIRPORT, CA US 1/4/2021     72    43
 5 USW00023190 SANTA BARBARA MUNICIPAL AIRPORT, CA US 1/5/2021     61    40
 6 USW00023190 SANTA BARBARA MUNICIPAL AIRPORT, CA US 1/6/2021     71    39
 7 USW00023190 SANTA BARBARA MUNICIPAL AIRPORT, CA US 1/7/2021     73    38
 8 USW00023190 SANTA BARBARA MUNICIPAL AIRPORT, CA US 1/8/2021     79    36
 9 USW00023190 SANTA BARBARA MUNICIPAL AIRPORT, CA US 1/9/2021     71    39
10 USW00023190 SANTA BARBARA MUNICIPAL AIRPORT, CA US 1/10/2021    67    37
# ℹ 78 more rows

weather1 <- weather1 |> mutate(DATE = mdy(DATE)) ## from the lubridate package
weather1

# A tibble: 88 × 5
   STATION     NAME                                   DATE        TMAX  TMIN
   <chr>       <chr>                                  <date>     <dbl> <dbl>
 1 USW00023190 SANTA BARBARA MUNICIPAL AIRPORT, CA US 2021-01-01    65    37
 2 USW00023190 SANTA BARBARA MUNICIPAL AIRPORT, CA US 2021-01-02    62    38
 3 USW00023190 SANTA BARBARA MUNICIPAL AIRPORT, CA US 2021-01-03    60    42
 4 USW00023190 SANTA BARBARA MUNICIPAL AIRPORT, CA US 2021-01-04    72    43
 5 USW00023190 SANTA BARBARA MUNICIPAL AIRPORT, CA US 2021-01-05    61    40
 6 USW00023190 SANTA BARBARA MUNICIPAL AIRPORT, CA US 2021-01-06    71    39
 7 USW00023190 SANTA BARBARA MUNICIPAL AIRPORT, CA US 2021-01-07    73    38
 8 USW00023190 SANTA BARBARA MUNICIPAL AIRPORT, CA US 2021-01-08    79    36
 9 USW00023190 SANTA BARBARA MUNICIPAL AIRPORT, CA US 2021-01-09    71    39
10 USW00023190 SANTA BARBARA MUNICIPAL AIRPORT, CA US 2021-01-10    67    37
# ℹ 78 more rows

SB weather data: long layouts

# A tibble: 88 × 5
     DAY MONTH  YEAR  TMAX  TMIN
   <int> <dbl> <dbl> <dbl> <dbl>
 1     1     1  2021    65    37
 2     2     1  2021    62    38
 3     3     1  2021    60    42
 4     4     1  2021    72    43
 5     5     1  2021    61    40
 6     6     1  2021    71    39
 7     7     1  2021    73    38
 8     8     1  2021    79    36
 9     9     1  2021    71    39
10    10     1  2021    67    37
# ℹ 78 more rows
…
head(undev2, n=3)

# A tibble: 3 × 5
  country     gender_inequality parliament_pct_women labor_participation_women
  <chr>                   <dbl>                <dbl>                     <dbl>
1 Norway                  0.045                 40.8                      60.4
2 Ireland                 0.093                 24.3                      56  
3 Switzerland             0.025                 38.6                      62.9
# ℹ 1 more variable: labor_participation_men <dbl>

UN development data: one table

Here are both tables merged by country:

# A tibble: 189 × 10
   country              total_pop urban_pct_pop pop_under5 pop_15to64 pop_over65
   <chr>                    <dbl>         <dbl>      <dbl>      <dbl>      <dbl>
 1 Norway                     5.4          82.6        0.3        3.5        0.9
 2 Ireland                    4.9          63.4        0.3        3.2        0.7
 3 Switzerland                8.6          73.8        0.4        5.7        1.6
 4 Hong Kong, China (S…       7.4         100          0.3        5.2        1.3
 5 Iceland                    0.3          93.9        0          0.2        0.1
 6 Germany                   83.5          77.4        4         54         18  
 7 Sweden                    10            87.7        0.6        6.2        2  
 8 Australia                 25.2          86.1        1.7       16.3        4  
 9 Netherlands               17.1          91.9        0.9       11          3.4
10 Denmark                    5.8          88          0.3        3.7        1.2
# ℹ 179 more rows
# ℹ 4 more variables: gender_inequality <dbl>, parliament_pct_women <dbl>,
#   labor_participation_women <dbl>, labor_participation_men <dbl>
…
UN development data: one (longer) table

And here is another arrangement of the merged table:

# A tibble: 3,780 × 5
   country gender_variable     gender_value population_variable population_value
   <chr>   <chr>                      <dbl> <chr>                          <dbl>
 1 Norway  gender_inequality          0.045 total_pop                        5.4
 2 Norway  gender_inequality          0.045 urban_pct_pop                   82.6
 3 Norway  gender_inequality          0.045 pop_under5                       0.3
 4 Norway  gender_inequality          0.045 pop_15to64                       3.5
 5 Norway  gender_inequality          0.045 pop_over65                       0.9
 6 Norway  parliament_pct_wom…       40.8   total_pop                        5.4
 7 Norway  parliament_pct_wom…       40.8   urban_pct_pop                   82.6
 8 Norway  parliament_pct_wom…       40.8   pop_under5                       0.3
 9 Norway  parliament_pct_wom…       40.8   pop_15to64                       3.5
10 Norway  parliament_pct_wom…       40.8   pop_over65                       0.9
# ℹ 3,770 more rows
…
gdp1 |> pivot_longer(cols=3:61,
                     names_to="Year",
                     values_to="GDP") |> 
  arrange(Year, `Country Name`) # sort by year first then country

# A tibble: 15,576 × 4
   `Country Name`      `Country Code` Year     GDP
   <chr>               <chr>          <chr>  <dbl>
 1 Afghanistan         AFG            1961   NA   
 2 Albania             ALB            1961   NA   
 3 Algeria             DZA            1961  -13.6 
 4 American Samoa      ASM            1961   NA   
 5 Andorra             AND            1961   NA   
 6 Angola              AGO            1961   NA   
 7 Antigua and Barbuda ATG            1961   NA   
 8 Arab World          ARB            1961   NA   
 9 Argentina           ARG            1961    5.43
10 Armenia             ARM            1961   NA   
# ℹ 15,566 more rows
…
head(mammal2, n=3)

# A tibble: 3 × 3
  species                measurement weight
  <chr>                  <chr>        <dbl>
1 Africanelephant        body_wt       6654
2 Africanelephant        brain_wt      5712
3 Africangiantpouchedrat body_wt          1

mammal2 |> pivot_wider(
    names_from = 'measurement', # which variable(s) do you want to send to new column names?
    values_from = 'weight' # which variable(s) do you want to use to populate the new columns?
) 

# A tibble: 62 × 3
   species                 body_wt brain_wt
   <chr>                     <dbl>    <dbl>
 1 Africanelephant        6654       5712  
 2 Africangiantpouchedrat    1          6.6
 3 ArcticFox                 3.38      44.5
 4 Arcticgroundsquirrel      0.92       5.7
 5 Asianelephant          2547       4603  
 6 Baboon                   10.6      180. 
 7 Bigbrownbat               0.023      0.3
 8 Braziliantapir          160        169  
 9 Cat                       3.3       25.6
10 Chimpanzee               52.2      440  
# ℹ 52 more rows
…
Pivot longer and wider

First Pivot Longer…

## First move date columns into a variable
weather3_long <- weather3 |> 
  pivot_longer(cols = 6:36,
    names_to = 'day',
    values_to = 'temp'
  )
weather3_long

# A tibble: 186 × 7
   STATION     NAME                                MONTH  YEAR Type  day    temp
   <chr>       <chr>                               <dbl> <dbl> <chr> <chr> <dbl>
 1 USW00023190 SANTA BARBARA MUNICIPAL AIRPORT, C…     1  2021 TMAX  1        65
 2 USW00023190 SANTA BARBARA MUNICIPAL AIRPORT, C…     1  2021 TMAX  2        62
 3 USW00023190 SANTA BARBARA MUNICIPAL AIRPORT, C…     1  2021 TMAX  3        60
 4 USW00023190 SANTA BARBARA MUNICIPAL AIRPORT, C…     1  2021 TMAX  4        72
 5 USW00023190 SANTA BARBARA MUNICIPAL AIRPORT, C…     1  2021 TMAX  5        61
 6 USW00023190 SANTA BARBARA MUNICIPAL AIRPORT, C…     1  2021 TMAX  6        71
 7 USW00023190 SANTA BARBARA MUNICIPAL AIRPORT, C…     1  2021 TMAX  7        73
 8 USW00023190 SANTA BARBARA MUNICIPAL AIRPORT, C…     1  2021 TMAX  8        79
 9 USW00023190 SANTA BARBARA MUNICIPAL AIRPORT, C…     1  2021 TMAX  9        71
10 USW00023190 SANTA BARBARA MUNICIPAL AIRPORT, C…     1  2021 TMAX  10       67
# ℹ 176 more rows

Pivot longer and wider

Then pivot_wider…

## First move date columns into a variable
weather3_tidy <- weather3_long |> 
  pivot_wider(names_from = Type, values_from = temp)
weather3_tidy

# A tibble: 93 × 7
   STATION     NAME                                MONTH  YEAR day    TMAX  TMIN
   <chr>       <chr>                               <dbl> <dbl> <chr> <dbl> <dbl>
 1 USW00023190 SANTA BARBARA MUNICIPAL AIRPORT, C…     1  2021 1        65    37
 2 USW00023190 SANTA BARBARA MUNICIPAL AIRPORT, C…     1  2021 2        62    38
 3 USW00023190 SANTA BARBARA MUNICIPAL AIRPORT, C…     1  2021 3        60    42
 4 USW00023190 SANTA BARBARA MUNICIPAL AIRPORT, C…     1  2021 4        72    43
 5 USW00023190 SANTA BARBARA MUNICIPAL AIRPORT, C…     1  2021 5        61    40
 6 USW00023190 SANTA BARBARA MUNICIPAL AIRPORT, C…     1  2021 6        71    39
 7 USW00023190 SANTA BARBARA MUNICIPAL AIRPORT, C…     1  2021 7        73    38
 8 USW00023190 SANTA BARBARA MUNICIPAL AIRPORT, C…     1  2021 8        79    36
 9 USW00023190 SANTA BARBARA MUNICIPAL AIRPORT, C…     1  2021 9        71    39
10 USW00023190 SANTA BARBARA MUNICIPAL AIRPORT, C…     1  2021 10       67    37
# ℹ 83 more rows

Pivot longer and wider

All in one chunk

## First move date columns into a variable
weather3 |> 
  pivot_longer(cols = 6:36,
               names_to = 'day',
               values_to = 'temp'
               ) |> 
  pivot_wider(names_from = Type, 
              values_from = temp)

# A tibble: 93 × 7
   STATION     NAME                                MONTH  YEAR day    TMAX  TMIN
   <chr>       <chr>                               <dbl> <dbl> <chr> <dbl> <dbl>
 1 USW00023190 SANTA BARBARA MUNICIPAL AIRPORT, C…     1  2021 1        65    37
 2 USW00023190 SANTA BARBARA MUNICIPAL AIRPORT, C…     1  2021 2        62    38
 3 USW00023190 SANTA BARBARA MUNICIPAL AIRPORT, C…     1  2021 3        60    42
 4 USW00023190 SANTA BARBARA MUNICIPAL AIRPORT, C…     1  2021 4        72    43
 5 USW00023190 SANTA BARBARA MUNICIPAL AIRPORT, C…     1  2021 5        61    40
 6 USW00023190 SANTA BARBARA MUNICIPAL AIRPORT, C…     1  2021 6        71    39
 7 USW00023190 SANTA BARBARA MUNICIPAL AIRPORT, C…     1  2021 7        73    38
 8 USW00023190 SANTA BARBARA MUNICIPAL AIRPORT, C…     1  2021 8        79    36
 9 USW00023190 SANTA BARBARA MUNICIPAL AIRPORT, C…     1  2021 9        71    39
10 USW00023190 SANTA BARBARA MUNICIPAL AIRPORT, C…     1  2021 10       67    37
# ℹ 83 more rows
…
However, there are a number of different joining rules (corresponding to SQL joins).

Join

The code below combines columns in each table by matching rows based on country.

inner_join(undev1, undev2, by = 'country')

# A tibble: 189 × 10
   country              total_pop urban_pct_pop pop_under5 pop_15to64 pop_over65
   <chr>                    <dbl>         <dbl>      <dbl>      <dbl>      <dbl>
 1 Norway                     5.4          82.6        0.3        3.5        0.9
 2 Ireland                    4.9          63.4        0.3        3.2        0.7
 3 Switzerland                8.6          73.8        0.4        5.7        1.6
 4 Hong Kong, China (S…       7.4         100          0.3        5.2        1.3
 5 Iceland                    0.3          93.9        0          0.2        0.1
 6 Germany                   83.5          77.4        4         54         18  
 7 Sweden                    10            87.7        0.6        6.2        2  
 8 Australia                 25.2          86.1        1.7       16.3        4  
 9 Netherlands               17.1          91.9        0.9       11          3.4
10 Denmark                    5.8          88          0.3        3.7        1.2
# ℹ 179 more rows
# ℹ 4 more variables: gender_inequality <dbl>, parliament_pct_women <dbl>,
#   labor_participation_women <dbl>, labor_participation_men <dbl>
…
